Time [s],Encoder Position [deg],Time [s],Encoder Speed [RPM]
0.027,0.0,0.027,0.0
0.048,0.0,0.048,0.0
0.06800001,0.0,0.06800001,0.0
0.089,0.0,0.089,0.0
0.109,0.0,0.109,0.0
0.13,0.0,0.13,0.0
0.15,0.0,0.15,0.0
0.171,0.0,0.171,0.0
0.191,0.0,0.191,0.0
0.211,0.0,0.211,0.0
0.231,0.0,0.231,0.0
0.251,0.0,0.251,0.0
0.272,0.0,0.272,0.0
0.292,0.0,0.292,0.0
0.312,0.0,0.312,0.0
0.332,0.0,0.332,0.0
0.352,0.0,0.352,0.0
0.372,0.0,0.372,0.0
0.393,0.0,0.393,0.0
0.413,0.0,0.413,0.0
0.434,0.0,0.434,0.0
0.454,0.0,0.454,0.0
0.474,0.0,0.474,0.0
0.494,0.0,0.494,0.0
0.515,0.0,0.515,0.0
0.535,0.0,0.535,0.0
0.555,0.0,0.555,0.0
0.575,0.0,0.575,0.0
0.595,0.0,0.595,0.0
0.616,0.0,0.616,0.0
0.637,0.0,0.637,0.0
0.657,0.0,0.657,0.0
0.677,0.0,0.677,0.0
0.697,0.0,0.697,0.0
0.717,0.0,0.717,0.0
0.738,0.0,0.738,0.0
0.758,0.0,0.758,0.0
0.778,0.0,0.778,0.0
0.798,0.0,0.798,0.0
0.818,0.0,0.818,0.0
0.838,0.0,0.838,0.0
0.859,0.0,0.859,0.0
0.879,0.0,0.879,0.0
0.899,0.0,0.899,0.0
0.9190001,0.0,0.9190001,0.0
0.939,0.0,0.939,0.0
0.959,0.0,0.959,0.0
0.98,0.0,0.98,0.0
1.0,0.0,1.0,0.0
1.02,0.0,1.02,0.0
1.04,0.0,1.04,0.0
1.06,0.0,1.06,0.0
1.081,0.0,1.081,0.0
1.101,0.0,1.101,0.0
1.121,0.0,1.121,0.0
1.141,0.0,1.141,0.0
1.162,0.0,1.162,0.0
1.182,0.0,1.182,0.0
1.203,0.0,1.203,0.0
1.223,0.0,1.223,0.0
1.248,0.0,1.248,0.0
1.269,0.0,1.269,0.0
1.289,0.0,1.289,0.0
1.309,0.0,1.309,0.0
1.33,0.0,1.33,0.0
1.35,0.0,1.35,0.0
1.37,0.0,1.37,0.0
1.39,0.0,1.39,0.0
1.41,0.0,1.41,0.0
1.43,0.0,1.43,0.0
1.451,0.0,1.451,0.0
1.471,0.0,1.471,0.0
1.491,0.0,1.491,0.0
1.511,0.0,1.511,0.0
1.531,0.0,1.531,0.0
1.552,0.0,1.552,0.0
1.572,0.0,1.572,0.0
1.592,0.0,1.592,0.0
1.612,0.0,1.612,0.0
1.632,0.0,1.632,0.0
1.652,0.0,1.652,0.0
1.673,0.0,1.673,0.0
1.693,0.0,1.693,0.0
1.713,0.0,1.713,0.0
1.733,0.0,1.733,0.0
1.753,0.0,1.753,0.0
1.773,0.0,1.773,0.0
1.794,0.0,1.794,0.0
1.814,0.0,1.814,0.0
1.835,0.0,1.835,0.0
1.855,0.0,1.855,0.0
1.875,0.0,1.875,0.0
1.896,0.0,1.896,0.0
1.917,0.0,1.917,0.0
1.937,0.0,1.937,0.0
1.957,0.0,1.957,0.0
1.977,0.0,1.977,0.0
1.997,0.0,1.997,0.0
2.018,0.0,2.018,0.0
2.038,0.0,2.038,0.0
2.058,0.0,2.058,0.0
2.078,0.0,2.078,0.0
2.098,0.0,2.098,0.0
2.118,0.0,2.118,0.0
2.139,0.0,2.139,0.0
2.159,0.0,2.159,0.0
2.179,0.0,2.179,0.0
2.199,0.0,2.199,0.0
2.219,0.0,2.219,0.0
2.239,0.0,2.239,0.0
2.26,0.0,2.26,0.0
2.28,0.0,2.28,0.0
2.3,0.0,2.3,0.0
2.32,0.0,2.32,0.0
2.34,0.0,2.34,0.0
2.365,0.0,2.365,0.0
2.385,0.0,2.385,0.0
2.405,-0.36,2.405,-3.0
2.425,-0.36,2.425,0.0
2.445,-0.36,2.445,0.0
2.465,-0.36,2.465,0.0
2.486,-0.36,2.486,0.0
2.506,-0.36,2.506,0.0
2.526,-0.36,2.526,0.0
2.546,-0.36,2.546,0.0
2.566,-0.36,2.566,0.0
2.586,-0.36,2.586,0.0
2.607,-0.36,2.607,0.0
2.627,-0.36,2.627,0.0
2.647,-0.36,2.647,0.0
2.667,-0.36,2.667,0.0
2.687,-0.36,2.687,0.0
2.707,-0.36,2.707,0.0
2.728,-0.36,2.728,0.0
2.748,-0.36,2.748,0.0
2.768,-0.36,2.768,0.0
2.788,-0.36,2.788,0.0
2.808,-0.36,2.808,0.0
2.829,-0.36,2.829,0.0
2.849,-0.36,2.849,0.0
2.869,-0.36,2.869,0.0
2.889,-0.36,2.889,0.0
2.909,-0.36,2.909,0.0
2.929,-0.36,2.929,0.0
2.95,-0.36,2.95,0.0
2.97,-0.36,2.97,0.0
2.99,-0.36,2.99,0.0
3.01,-0.36,3.01,0.0
3.031,-0.36,3.031,0.0
3.051,-0.36,3.051,0.0
3.072,-0.36,3.072,0.0
3.092,-0.36,3.092,0.0
3.112,-0.36,3.112,0.0
3.133,-0.36,3.133,0.0
3.153,-0.36,3.153,0.0
3.174,-0.36,3.174,0.0
3.195,-0.36,3.195,0.0
3.215,-0.36,3.215,0.0
3.235,-0.36,3.235,0.0
3.256,-0.36,3.256,0.0
3.276,-0.36,3.276,0.0
3.296,-0.36,3.296,0.0
3.316,-0.36,3.316,0.0
3.336,-0.36,3.336,0.0
3.356,-0.36,3.356,0.0
3.377,-0.36,3.377,0.0
3.397,-0.36,3.397,0.0
3.418,-0.36,3.418,0.0
3.438,-0.36,3.438,0.0
3.458,-0.36,3.458,0.0
3.478,-0.36,3.478,0.0
3.498,-0.36,3.498,0.0
3.518,-0.36,3.518,0.0
3.538,-0.36,3.538,0.0
3.558,-0.36,3.558,0.0
3.578,-0.36,3.578,0.0
3.599,-0.36,3.599,0.0
3.619,-0.81,3.619,-3.75
3.643,-0.81,3.643,0.0
3.663,-0.81,3.663,0.0
3.684,-0.81,3.684,0.0
3.704,-0.81,3.704,0.0
3.725,-0.81,3.725,0.0
3.745,-0.81,3.745,0.0
3.765,-0.81,3.765,0.0
3.785,-0.81,3.785,0.0
3.805,-0.81,3.805,0.0
3.825,-0.81,3.825,0.0
3.845,-0.81,3.845,0.0
3.865,-0.81,3.865,0.0
3.885,-0.81,3.885,0.0
3.906,-0.81,3.906,0.0
3.926,-0.81,3.926,0.0
3.947,-0.81,3.947,0.0
3.967,-0.81,3.967,0.0
3.987,-0.81,3.987,0.0
4.007,-0.81,4.007,0.0
4.028,-0.81,4.028,0.0
4.048,-0.81,4.048,0.0
4.069,-0.81,4.069,0.0
4.089,-0.81,4.089,0.0
4.109,-0.81,4.109,0.0
4.13,-0.81,4.13,0.0
4.151,-0.81,4.151,0.0
4.171,-0.81,4.171,0.0
4.192,-0.81,4.192,0.0
4.212,-0.81,4.212,0.0
4.232,-0.81,4.232,0.0
4.252,-0.81,4.252,0.0
4.272,-0.81,4.272,0.0
4.293,-0.81,4.293,0.0
4.313,-0.81,4.313,0.0
4.333,-0.81,4.333,0.0
4.353,-0.99,4.353,-1.5
4.374,-0.99,4.374,0.0
4.394,-0.99,4.394,0.0
4.415,-0.99,4.415,0.0
4.435,-0.99,4.435,0.0
4.455,-0.99,4.455,0.0
4.475,-0.99,4.475,0.0
4.495,-0.99,4.495,0.0
4.515,-0.99,4.515,0.0
4.536,-0.99,4.536,0.0
4.556,-0.99,4.556,0.0
4.576,-0.99,4.576,0.0
4.596,-0.99,4.596,0.0
4.616,-0.99,4.616,0.0
4.636,-0.99,4.636,0.0
4.657,-0.99,4.657,0.0
4.677,-0.99,4.677,0.0
4.697,-0.99,4.697,0.0
4.718,-0.99,4.718,0.0
4.738,-0.99,4.738,0.0
4.761,-0.99,4.761,0.0
4.781,-0.99,4.781,0.0
4.801,-0.99,4.801,0.0
4.821,-0.99,4.821,0.0
4.842,-0.99,4.842,0.0
4.862,-0.99,4.862,0.0
4.882,-0.99,4.882,0.0
4.902,-0.99,4.902,0.0
4.922,-0.99,4.922,0.0
4.942,-0.99,4.942,0.0
4.963,-0.99,4.963,0.0
4.983,-0.99,4.983,0.0
5.003,-0.99,5.003,0.0
5.023,-0.99,5.023,0.0
5.043,-0.99,5.043,0.0
5.064,-0.99,5.064,0.0
5.084,-0.99,5.084,0.0
5.104,-0.99,5.104,0.0
5.124,-0.99,5.124,0.0
5.144,-0.99,5.144,0.0
5.164,-0.99,5.164,0.0
5.185,-0.99,5.185,0.0
5.205,-0.99,5.205,0.0
5.225,-0.99,5.225,0.0
5.245,-0.99,5.245,0.0
5.265,-0.99,5.265,0.0
5.285,-0.99,5.285,0.0
5.306,-0.99,5.306,0.0
5.326,-0.99,5.326,0.0
5.346,-0.99,5.346,0.0
5.366,-0.99,5.366,0.0
5.386,-0.99,5.386,0.0
5.407,-0.99,5.407,0.0
5.428,-0.99,5.428,0.0
5.448,-0.99,5.448,0.0
5.468,-0.99,5.468,0.0
5.488,-0.99,5.488,0.0
5.508,-0.99,5.508,0.0
5.529,-0.99,5.529,0.0
5.549,-0.99,5.549,0.0
5.569,-0.99,5.569,0.0
5.589,-1.17,5.589,-1.5
5.609,-1.17,5.609,0.0
5.629,-1.17,5.629,0.0
5.65,-1.17,5.65,0.0
5.67,-1.17,5.67,0.0
5.69,-1.17,5.69,0.0
5.71,-1.17,5.71,0.0
5.73,-1.17,5.73,0.0
5.75,-1.17,5.75,0.0
5.771,-1.17,5.771,0.0
5.791,-1.17,5.791,0.0
5.811,-1.17,5.811,0.0
5.832,-1.17,5.832,0.0
5.852,-1.17,5.852,0.0
5.873,-1.17,5.873,0.0
5.893,-1.17,5.893,0.0
5.913,-1.17,5.913,0.0
5.933,-1.17,5.933,0.0
5.953,-1.17,5.953,0.0
5.973,-1.17,5.973,0.0
5.994,-1.17,5.994,0.0
6.014,-1.17,6.014,0.0
6.034,-1.17,6.034,0.0
6.054,-1.17,6.054,0.0
6.075,-1.17,6.075,0.0
6.095,-1.17,6.095,0.0
6.116,-1.17,6.116,0.0
6.136,-1.17,6.136,0.0
6.156,-1.17,6.156,0.0
6.176,-1.17,6.176,0.0
6.199,-1.17,6.199,0.0
6.219,-1.17,6.219,0.0
6.239,-1.17,6.239,0.0
6.259,-1.17,6.259,0.0
6.279,-1.17,6.279,0.0
6.3,-1.17,6.3,0.0
6.32,-1.17,6.32,0.0
6.34,-1.17,6.34,0.0
6.36,-1.17,6.36,0.0
6.38,-1.17,6.38,0.0
6.4,-1.17,6.4,0.0
6.421,-1.17,6.421,0.0
6.441,-1.17,6.441,0.0
6.461,-1.17,6.461,0.0
6.481,-1.17,6.481,0.0
6.501,-1.17,6.501,0.0
6.522,-1.17,6.522,0.0
6.543,-1.17,6.543,0.0
6.563,-1.17,6.563,0.0
6.583,-1.35,6.583,-1.5
6.603,-1.35,6.603,0.0
6.623,-1.35,6.623,0.0
6.644,-1.35,6.644,0.0
6.664,-1.35,6.664,0.0
6.684,-1.35,6.684,0.0
6.704,-1.35,6.704,0.0
6.724,-1.35,6.724,0.0
6.744,-1.35,6.744,0.0
6.765,-1.35,6.765,0.0
6.785,-1.35,6.785,0.0
6.805,-1.35,6.805,0.0
6.825,-1.35,6.825,0.0
6.845,-1.35,6.845,0.0
6.865,-1.35,6.865,0.0
6.885,-1.35,6.885,0.0
6.905,-1.35,6.905,0.0
6.925,-1.35,6.925,0.0
6.945,-1.35,6.945,0.0
6.965,-1.35,6.965,0.0
6.986,-1.35,6.986,0.0
7.006,-1.35,7.006,0.0
7.026,-1.35,7.026,0.0
7.046,-1.35,7.046,0.0
7.066,-1.35,7.066,0.0
7.086,-1.35,7.086,0.0
7.107,-1.35,7.107,0.0
7.127,-1.35,7.127,0.0
7.147,-1.35,7.147,0.0
7.167,-1.35,7.167,0.0
7.187,-1.35,7.187,0.0
7.207,-1.35,7.207,0.0
7.228,-1.35,7.228,0.0
7.248,-1.35,7.248,0.0
7.268,-1.35,7.268,0.0
7.288,-1.35,7.288,0.0
7.308,-1.35,7.308,0.0
7.329,-1.35,7.329,0.0
7.35,-1.35,7.35,0.0
7.37,-1.35,7.37,0.0
7.39,-1.62,7.39,-2.25
7.41,-1.62,7.41,0.0
7.43,-1.62,7.43,0.0
7.45,-1.62,7.45,0.0
7.47,-1.62,7.47,0.0
7.491,-1.62,7.491,0.0
7.511,-1.62,7.511,0.0
7.531,-1.62,7.531,0.0
7.551,-1.62,7.551,0.0
7.571,-1.62,7.571,0.0
7.591,-1.62,7.591,0.0
7.612,-1.62,7.612,0.0
7.637,-1.62,7.637,0.0
7.657,-1.62,7.657,0.0
7.677,-1.62,7.677,0.0
7.698,-1.62,7.698,0.0
7.718,-1.62,7.718,0.0
7.739,-1.62,7.739,0.0
7.759,-1.62,7.759,0.0
7.779,-1.62,7.779,0.0
7.799,-1.62,7.799,0.0
7.82,-1.62,7.82,0.0
7.84,-1.62,7.84,0.0
7.86,-1.62,7.86,0.0
7.88,-1.62,7.88,0.0
7.9,-1.62,7.9,0.0
7.92,-1.62,7.92,0.0
7.94,-1.62,7.94,0.0
7.96,-1.62,7.96,0.0
7.981,-1.62,7.981,0.0
8.001,-1.62,8.001,0.0
8.021,-1.62,8.021,0.0
8.041,-1.62,8.041,0.0
8.061,-1.62,8.061,0.0
8.082,-1.62,8.082,0.0
8.102,-1.62,8.102,0.0
8.123,-1.62,8.123,0.0
8.143,-1.62,8.143,0.0
8.163,-1.62,8.163,0.0
8.183,-1.62,8.183,0.0
8.204,-1.62,8.204,0.0
8.224,-1.62,8.224,0.0
8.244,-1.62,8.244,0.0
8.264,-1.62,8.264,0.0
8.284,-1.62,8.284,0.0
8.304,-1.62,8.304,0.0
8.325,-1.62,8.325,0.0
8.345,-1.62,8.345,0.0
8.365,-1.62,8.365,0.0
8.385,-1.62,8.385,0.0
8.405,-1.62,8.405,0.0
8.426,-1.62,8.426,0.0
8.446,-1.62,8.446,0.0
8.466,-1.62,8.466,0.0
8.486,-1.62,8.486,0.0
8.506,-1.62,8.506,0.0
8.526,-1.62,8.526,0.0
8.547,-1.62,8.547,0.0
8.567,-1.62,8.567,0.0
8.587,-1.62,8.587,0.0
8.607,-1.62,8.607,0.0
8.628,-1.62,8.628,0.0
8.648,-1.62,8.648,0.0
8.668,-1.62,8.668,0.0
8.688,-1.98,8.688,-3.0
8.708,-1.98,8.708,0.0
8.729,-1.98,8.729,0.0
8.749,-1.98,8.749,0.0
8.769,-1.98,8.769,0.0
8.789,-1.98,8.789,0.0
8.81,-1.98,8.81,0.0
8.83,-1.98,8.83,0.0
8.851,-1.98,8.851,0.0
8.871,-1.98,8.871,0.0
8.891,-1.98,8.891,0.0
8.916,-1.98,8.916,0.0
8.936,-1.98,8.936,0.0
8.956,-1.98,8.956,0.0
8.977,-1.98,8.977,0.0
8.997,-1.98,8.997,0.0
9.018,-1.98,9.018,0.0
9.038,-1.98,9.038,0.0
9.058,-1.98,9.058,0.0
9.079,-1.98,9.079,0.0
9.1,-1.98,9.1,0.0
9.12,-1.98,9.12,0.0
9.14,-1.98,9.14,0.0
9.16,-1.98,9.16,0.0
9.18,-1.98,9.18,0.0
9.201,-1.98,9.201,0.0
9.221,-1.98,9.221,0.0
9.241,-1.98,9.241,0.0
9.261,-1.98,9.261,0.0
9.281,-1.98,9.281,0.0
9.301,-1.98,9.301,0.0
9.322,-1.98,9.322,0.0
9.342,-1.98,9.342,0.0
9.362,-1.98,9.362,0.0
9.382,-1.98,9.382,0.0
9.402,-1.98,9.402,0.0
9.422,-1.98,9.422,0.0
9.443,-1.98,9.443,0.0
9.463,-1.98,9.463,0.0
9.483,-1.98,9.483,0.0
9.503,-1.98,9.503,0.0
9.523,-1.98,9.523,0.0
9.544,-1.98,9.544,0.0
9.564,-1.98,9.564,0.0
9.584,-1.98,9.584,0.0
9.604,-1.98,9.604,0.0
9.625,-2.16,9.625,-1.5
9.645,-2.16,9.645,0.0
9.666,-2.16,9.666,0.0
9.686,-2.16,9.686,0.0
9.706,-2.16,9.706,0.0
9.727,-2.16,9.727,0.0
9.748,-2.16,9.748,0.0
9.768,-2.16,9.768,0.0
9.788,-2.16,9.788,0.0
9.808,-2.16,9.808,0.0
9.828,-2.16,9.828,0.0
9.849,-2.16,9.849,0.0
9.873,-2.16,9.873,0.0
9.893,-2.16,9.893,0.0
9.913,-2.16,9.913,0.0
9.934,-2.16,9.934,0.0
9.954,-2.16,9.954,0.0
9.975,-2.16,9.975,0.0
9.995,-2.16,9.995,0.0
10.015,-2.16,10.015,0.0
10.036,-2.16,10.036,0.0
10.057,-2.16,10.057,0.0
10.077,-2.16,10.077,0.0
10.097,-2.16,10.097,0.0
10.117,-2.16,10.117,0.0
10.137,-2.16,10.137,0.0
10.158,-2.16,10.158,0.0
10.178,-2.16,10.178,0.0
10.198,-2.16,10.198,0.0
10.218,-2.16,10.218,0.0
10.239,-2.16,10.239,0.0
10.259,-2.16,10.259,0.0
10.279,-2.16,10.279,0.0
10.299,-2.16,10.299,0.0
10.319,-2.16,10.319,0.0
10.34,-2.16,10.34,0.0
10.36,-2.16,10.36,0.0
10.38,-2.16,10.38,0.0
10.4,-2.16,10.4,0.0
10.42,-2.16,10.42,0.0
10.44,-2.16,10.44,0.0
10.46,-2.16,10.46,0.0
10.48,-2.16,10.48,0.0
10.501,-2.16,10.501,0.0
10.521,-2.16,10.521,0.0
10.541,-2.16,10.541,0.0
10.561,-2.16,10.561,0.0
10.582,-2.16,10.582,0.0
10.602,-2.16,10.602,0.0
10.622,-2.16,10.622,0.0
10.642,-2.16,10.642,0.0
10.662,-2.16,10.662,0.0
10.683,-2.16,10.683,0.0
10.704,-2.16,10.704,0.0
10.724,-2.16,10.724,0.0
10.744,-2.16,10.744,0.0
10.764,-2.16,10.764,0.0
10.784,-2.16,10.784,0.0
10.805,-2.16,10.805,0.0
10.825,-2.16,10.825,0.0
10.845,-2.16,10.845,0.0
10.865,-2.16,10.865,0.0
10.886,-2.16,10.886,0.0
10.906,-2.16,10.906,0.0
10.927,-2.16,10.927,0.0
10.947,-2.16,10.947,0.0
10.967,-2.16,10.967,0.0
10.99,-2.16,10.99,0.0
11.011,-2.16,11.011,0.0
11.031,-2.16,11.031,0.0
11.051,-2.34,11.051,-1.5
11.071,-2.34,11.071,0.0
11.091,-2.34,11.091,0.0
11.112,-2.34,11.112,0.0
11.132,-2.34,11.132,0.0
11.152,-2.34,11.152,0.0
11.172,-2.34,11.172,0.0
11.193,-2.34,11.193,0.0
11.213,-2.34,11.213,0.0
11.234,-2.34,11.234,0.0
11.254,-2.34,11.254,0.0
11.274,-2.34,11.274,0.0
11.294,-2.34,11.294,0.0
11.314,-2.34,11.314,0.0
11.334,-2.34,11.334,0.0
11.354,-2.34,11.354,0.0
11.374,-2.34,11.374,0.0
11.394,-2.34,11.394,0.0
11.415,-2.34,11.415,0.0
11.435,-2.34,11.435,0.0
11.456,-2.34,11.456,0.0
11.476,-2.34,11.476,0.0
11.496,-2.34,11.496,0.0
11.516,-2.34,11.516,0.0
11.537,-2.34,11.537,0.0
11.557,-2.34,11.557,0.0
11.577,-2.34,11.577,0.0
11.597,-2.34,11.597,0.0
11.617,-2.34,11.617,0.0
11.638,-2.34,11.638,0.0
11.658,-2.34,11.658,0.0
11.678,-2.34,11.678,0.0
11.698,-2.34,11.698,0.0
11.719,-2.34,11.719,0.0
11.739,-2.34,11.739,0.0
11.759,-2.34,11.759,0.0
11.779,-2.34,11.779,0.0
11.799,-2.34,11.799,0.0
11.819,-2.34,11.819,0.0
11.84,-2.34,11.84,0.0
11.86,-2.34,11.86,0.0
11.88,-2.34,11.88,0.0
11.9,-2.34,11.9,0.0
11.92,-2.34,11.92,0.0
11.941,-2.34,11.941,0.0
11.961,-2.34,11.961,0.0
11.981,-2.34,11.981,0.0
12.001,-2.34,12.001,0.0
12.021,-2.34,12.021,0.0
12.041,-2.34,12.041,0.0
12.062,-2.34,12.062,0.0
12.082,-2.34,12.082,0.0
12.102,-2.34,12.102,0.0
12.122,-2.34,12.122,0.0
12.143,-2.34,12.143,0.0
12.163,-2.34,12.163,0.0
12.183,-2.34,12.183,0.0
12.203,-2.34,12.203,0.0
12.223,-2.34,12.223,0.0
12.244,-2.34,12.244,0.0
12.268,-2.34,12.268,0.0
12.288,-2.34,12.288,0.0
12.308,-2.34,12.308,0.0
12.329,-2.34,12.329,0.0
12.349,-2.34,12.349,0.0
12.369,-2.34,12.369,0.0
12.389,-2.34,12.389,0.0
12.409,-2.34,12.409,0.0
12.429,-2.25,12.429,0.75
12.45,-2.25,12.45,0.0
12.47,-2.25,12.47,0.0
12.49,-2.25,12.49,0.0
12.51,-2.25,12.51,0.0
12.53,-2.25,12.53,0.0
12.551,-2.25,12.551,0.0
12.571,-2.25,12.571,0.0
12.591,-2.25,12.591,0.0
12.611,-2.25,12.611,0.0
12.631,-2.25,12.631,0.0
12.651,-2.25,12.651,0.0
12.672,-2.25,12.672,0.0
12.692,-2.25,12.692,0.0
12.712,-2.25,12.712,0.0
12.732,-2.25,12.732,0.0
12.752,-2.25,12.752,0.0
12.772,-2.25,12.772,0.0
12.792,-2.25,12.792,0.0
12.812,-2.25,12.812,0.0
12.832,-2.25,12.832,0.0
12.853,-2.25,12.853,0.0
12.873,-2.25,12.873,0.0
12.893,-2.25,12.893,0.0
12.913,-2.25,12.913,0.0
12.933,-2.25,12.933,0.0
12.953,-2.25,12.953,0.0
12.974,-2.25,12.974,0.0
12.994,-2.25,12.994,0.0
13.014,-2.25,13.014,0.0
13.034,-2.25,13.034,0.0
13.054,-2.25,13.054,0.0
13.075,-2.25,13.075,0.0
13.096,-2.25,13.096,0.0
13.116,-2.25,13.116,0.0
13.136,-2.25,13.136,0.0
13.156,-2.25,13.156,0.0
13.176,-2.25,13.176,0.0
13.197,-2.25,13.197,0.0
13.217,-2.25,13.217,0.0
13.237,-2.25,13.237,0.0
13.257,-2.25,13.257,0.0
13.278,-2.25,13.278,0.0
13.298,-2.25,13.298,0.0
13.319,-2.25,13.319,0.0
13.339,-2.25,13.339,0.0
13.359,-2.25,13.359,0.0
13.38,-2.25,13.38,0.0
13.4,-2.25,13.4,0.0
13.42,-2.25,13.42,0.0
13.44,-2.25,13.44,0.0
13.46,-2.25,13.46,0.0
13.48,-2.25,13.48,0.0
13.501,-2.25,13.501,0.0
13.521,-2.25,13.521,0.0
13.545,-2.25,13.545,0.0
13.565,-2.25,13.565,0.0
13.586,-2.25,13.586,0.0
13.606,-2.25,13.606,0.0
13.627,-2.25,13.627,0.0
13.647,-2.25,13.647,0.0
13.667,-2.25,13.667,0.0
13.687,-2.25,13.687,0.0
13.707,-2.25,13.707,0.0
13.727,-2.25,13.727,0.0
13.747,-2.25,13.747,0.0
13.767,-2.25,13.767,0.0
13.787,-2.25,13.787,0.0
13.808,-2.25,13.808,0.0
13.828,-2.25,13.828,0.0
13.848,-2.25,13.848,0.0
13.868,-2.25,13.868,0.0
13.889,-2.25,13.889,0.0
13.909,-2.25,13.909,0.0
13.93,-2.43,13.93,-1.5
13.95,-2.43,13.95,0.0
13.97,-2.43,13.97,0.0
13.99,-2.43,13.99,0.0
14.01,-2.43,14.01,0.0
14.031,-2.43,14.031,0.0
14.051,-2.43,14.051,0.0
14.071,-2.43,14.071,0.0
14.091,-2.43,14.091,0.0
14.112,-2.43,14.112,0.0
14.132,-2.43,14.132,0.0
14.152,-2.43,14.152,0.0
14.172,-2.43,14.172,0.0
14.192,-2.43,14.192,0.0
14.212,-2.43,14.212,0.0
14.233,-2.43,14.233,0.0
14.253,-2.43,14.253,0.0
14.273,-2.43,14.273,0.0
14.294,-2.43,14.294,0.0
14.314,-2.43,14.314,0.0
14.335,-2.43,14.335,0.0
14.355,-2.43,14.355,0.0
14.375,-2.43,14.375,0.0
14.395,-2.43,14.395,0.0
14.416,-2.43,14.416,0.0
14.436,-2.43,14.436,0.0
14.456,-2.43,14.456,0.0
14.476,-2.43,14.476,0.0
14.496,-2.43,14.496,0.0
14.517,-2.43,14.517,0.0
14.538,-2.43,14.538,0.0
14.558,-2.43,14.558,0.0
14.578,-2.43,14.578,0.0
14.598,-2.43,14.598,0.0
14.618,-2.43,14.618,0.0
14.639,-2.43,14.639,0.0
14.663,-2.43,14.663,0.0
14.683,-2.43,14.683,0.0
14.703,-2.43,14.703,0.0
14.724,-2.43,14.724,0.0
14.744,-2.43,14.744,0.0
14.764,-2.43,14.764,0.0
14.784,-2.43,14.784,0.0
14.804,-2.61,14.804,-1.5
14.825,-2.61,14.825,0.0
14.845,-2.61,14.845,0.0
14.865,-2.61,14.865,0.0
14.885,-2.61,14.885,0.0
14.906,-2.61,14.906,0.0
14.926,-2.61,14.926,0.0
14.947,-2.61,14.947,0.0
14.967,-2.61,14.967,0.0
14.987,-2.61,14.987,0.0
